%YAML 1.1
%TAG !u! tag:unity3d.com,2011:
--- !u!1001 &1103253493410910411
PrefabInstance:
  m_ObjectHideFlags: 0
  serializedVersion: 2
  m_Modification:
    serializedVersion: 3
    m_TransformParent: {fileID: 0}
    m_Modifications:
    - target: {fileID: -8679921383154817045, guid: 9032f1e920d07d94f8a61dc522bd259f, type: 3}
      propertyPath: m_LocalPosition.x
      value: 0
      objectReference: {fileID: 0}
    - target: {fileID: -8679921383154817045, guid: 9032f1e920d07d94f8a61dc522bd259f, type: 3}
      propertyPath: m_LocalPosition.y
      value: 0
      objectReference: {fileID: 0}
    - target: {fileID: -8679921383154817045, guid: 9032f1e920d07d94f8a61dc522bd259f, type: 3}
      propertyPath: m_LocalPosition.z
      value: 0
      objectReference: {fileID: 0}
    - target: {fileID: -8679921383154817045, guid: 9032f1e920d07d94f8a61dc522bd259f, type: 3}
      propertyPath: m_LocalRotation.w
      value: 1
      objectReference: {fileID: 0}
    - target: {fileID: -8679921383154817045, guid: 9032f1e920d07d94f8a61dc522bd259f, type: 3}
      propertyPath: m_LocalRotation.x
      value: 0
      objectReference: {fileID: 0}
    - target: {fileID: -8679921383154817045, guid: 9032f1e920d07d94f8a61dc522bd259f, type: 3}
      propertyPath: m_LocalRotation.y
      value: 0
      objectReference: {fileID: 0}
    - target: {fileID: -8679921383154817045, guid: 9032f1e920d07d94f8a61dc522bd259f, type: 3}
      propertyPath: m_LocalRotation.z
      value: 0
      objectReference: {fileID: 0}
    - target: {fileID: -8679921383154817045, guid: 9032f1e920d07d94f8a61dc522bd259f, type: 3}
      propertyPath: m_LocalEulerAnglesHint.x
      value: 0
      objectReference: {fileID: 0}
    - target: {fileID: -8679921383154817045, guid: 9032f1e920d07d94f8a61dc522bd259f, type: 3}
      propertyPath: m_LocalEulerAnglesHint.y
      value: 0
      objectReference: {fileID: 0}
    - target: {fileID: -8679921383154817045, guid: 9032f1e920d07d94f8a61dc522bd259f, type: 3}
      propertyPath: m_LocalEulerAnglesHint.z
      value: 0
      objectReference: {fileID: 0}
    - target: {fileID: 919132149155446097, guid: 9032f1e920d07d94f8a61dc522bd259f, type: 3}
      propertyPath: m_Name
      value: Player
      objectReference: {fileID: 0}
    - target: {fileID: 8496938367211753981, guid: 9032f1e920d07d94f8a61dc522bd259f, type: 3}
      propertyPath: m_Materials.Array.data[0]
      value: 
      objectReference: {fileID: 2100000, guid: 639c64ede94317e4888dd4c42b54653f, type: 2}
    m_RemovedComponents: []
    m_RemovedGameObjects: []
    m_AddedGameObjects: []
    m_AddedComponents:
    - targetCorrespondingSourceObject: {fileID: 919132149155446097, guid: 9032f1e920d07d94f8a61dc522bd259f, type: 3}
      insertIndex: -1
      addedObject: {fileID: 4497980785585113021}
  m_SourcePrefab: {fileID: 100100000, guid: 9032f1e920d07d94f8a61dc522bd259f, type: 3}
--- !u!1 &256391702518590874 stripped
GameObject:
  m_CorrespondingSourceObject: {fileID: 919132149155446097, guid: 9032f1e920d07d94f8a61dc522bd259f, type: 3}
  m_PrefabInstance: {fileID: 1103253493410910411}
  m_PrefabAsset: {fileID: 0}
--- !u!95 &4497980785585113021
Animator:
  serializedVersion: 5
  m_ObjectHideFlags: 0
  m_CorrespondingSourceObject: {fileID: 0}
  m_PrefabInstance: {fileID: 0}
  m_PrefabAsset: {fileID: 0}
  m_GameObject: {fileID: 256391702518590874}
  m_Enabled: 1
  m_Avatar: {fileID: 0}
  m_Controller: {fileID: 9100000, guid: dd04a5bc16b46ef4e9165e781848ecec, type: 2}
  m_CullingMode: 0
  m_UpdateMode: 0
  m_ApplyRootMotion: 0
  m_LinearVelocityBlending: 0
  m_StabilizeFeet: 0
  m_WarningMessage: 
  m_HasTransformHierarchy: 1
  m_AllowConstantClipSamplingOptimization: 1
  m_KeepAnimatorStateOnDisable: 0
  m_WriteDefaultValuesOnDisable: 0
